…
### Шаг 2. Анализ данных

#### 1. Определить небезопасные точки доступа (без шифрования – OPN)

Выполняем фильтрацию точек доступа с отсутствующим шифрованием:

``` r
insecure_access_points <- wifi_ap_clean %>%
  filter(privacy == "OPN") %>%
  select(bssid, essid, privacy, channel, power)

insecure_access_points
```

    # A tibble: 42 × 5
       bssid             essid         privacy channel power
       <chr>             <chr>         <chr>     <dbl> <dbl>
     1 E8:28:C1:DC:B2:52 MIREA_HOTSPOT OPN           6   -63
     2 E8:28:C1:DC:B2:50 MIREA_GUESTS  OPN           6   -63
     3 E8:28:C1:DC:B2:51 <NA>          OPN           6   -63
     4 E8:28:C1:DC:FF:F2 <NA>          OPN           6    -1
     5 00:25:00:FF:94:73 <NA>          OPN          44    -1
     6 E8:28:C1:DD:04:52 MIREA_HOTSPOT OPN          11   -67
     7 E8:28:C1:DE:74:31 <NA>          OPN           6   -82
     8 E8:28:C1:DE:74:32 MIREA_HOTSPOT OPN           6   -69
     9 E8:28:C1:DC:C8:32 MIREA_HOTSPOT OPN           1   -69
    10 E8:28:C1:DD:04:50 MIREA_GUESTS  OPN          11   -78
    # ℹ 32 more rows
…
Выполняем сортировку по длительности сессий:

``` r
access_points_by_duration <- wifi_ap_sessions %>%
  arrange(desc(duration_seconds)) %>%
  select(bssid, essid, vendor, session_id, duration_seconds, first_seen, last_seen)

access_points_by_duration
```

    # A tibble: 169 × 7
       bssid            essid vendor session_id duration_seconds first_seen         
       <chr>            <chr> <chr>       <int>            <dbl> <dttm>             
     1 00:25:00:FF:94:… <NA>  Apple           1             9795 2023-07-28 09:13:06
     2 E8:28:C1:DD:04:… MIRE… <NA>            1             9776 2023-07-28 09:13:09
     3 E8:28:C1:DC:B2:… MIRE… <NA>            1             9755 2023-07-28 09:13:03
     4 08:3A:2F:56:35:… <NA>  <NA>            1             9746 2023-07-28 09:13:27
     5 6E:C7:EC:16:DA:… Cnet  <NA>            1             9729 2023-07-28 09:13:03
     6 E8:28:C1:DC:B2:… MIRE… <NA>            1             9726 2023-07-28 09:13:06
     7 48:5B:39:F9:7A:… <NA>  Asust…          1             9725 2023-07-28 09:13:06
     8 E8:28:C1:DC:B2:… <NA>  <NA>            1             9725 2023-07-28 09:13:06
     9 E8:28:C1:DC:FF:… <NA>  <NA>            1             9724 2023-07-28 09:13:06
    10 8E:55:4A:85:5B:… Vlad… <NA>            1             9723 2023-07-28 09:13:06
    # ℹ 159 more rows
    # ℹ 1 more variable: last_seen <dttm>
…
#### 6. Отсортировать точки доступа по частоте отправки запросов (beacons) в единицу времени по их убыванию

Выполняем ранжирование точек доступа по интенсивности отправки
beacon-кадров:

``` r
access_points_by_beacon_rate <- wifi_ap_sessions %>%
  filter(is.finite(beacon_rate)) %>%
  arrange(desc(beacon_rate)) %>%
  select(bssid, essid, vendor, session_id, beacons, duration_seconds, beacon_rate)

access_points_by_beacon_rate
```

    # A tibble: 126 × 7
       bssid            essid vendor session_id beacons duration_seconds beacon_rate
       <chr>            <chr> <chr>       <int>   <dbl>            <dbl>       <dbl>
     1 F2:30:AB:E9:03:… iPho… <NA>            1       6                7       0.857
     2 B2:CF:C0:00:4A:… Миха… <NA>            1       4                5       0.8  
     3 3A:DA:00:F9:0C:… iPho… <NA>            1       5                9       0.556
     4 00:3E:1A:5D:14:… MT_F… <NA>            1       1                2       0.5  
     5 02:BC:15:7E:D5:… MT_F… <NA>            1       1                2       0.5  
     6 76:C5:A0:70:08:… <NA>  <NA>            1       1                2       0.5  
     7 D2:25:91:F6:6C:… Саня  <NA>            1       5               13       0.385
     8 BE:F1:71:D6:10:… C322… <NA>            1    1647             9461       0.174
     9 00:03:7A:1A:03:… MT_F… Taiyo…          1       1                6       0.167
    10 38:1A:52:0D:84:… EBFC… <NA>            1     704             4319       0.163
    # ℹ 116 more rows
…
Выполняем идентификацию устройств с нерандомизированными MAC-адресами:

``` r
non_randomized_clients <- wifi_clients_clean %>%
  mutate(is_randomized = vapply(station_mac, is_randomized_mac, logical(1))) %>%
  filter(is_randomized == FALSE) %>%
  select(station_mac, vendor, bssid, first_seen, last_seen, power, packets)

non_randomized_clients
```

    # A tibble: 217 × 7
       station_mac       vendor  bssid first_seen          last_seen           power
       <chr>             <chr>   <chr> <dttm>              <dttm>              <dbl>
     1 5C:3A:45:9E:1A:7B <NA>    BE:F… 2023-07-28 09:13:03 2023-07-28 11:51:54   -39
     2 C0:E4:34:D8:E7:E5 <NA>    BE:F… 2023-07-28 09:13:03 2023-07-28 11:53:16   -61
     3 10:51:07:CB:33:E7 <NA>    <NA>  2023-07-28 09:13:05 2023-07-28 11:56:06   -43
     4 68:54:5A:40:35:9E <NA>    1E:9… 2023-07-28 09:13:06 2023-07-28 11:50:50   -31
     5 74:4C:A1:70:CE:F7 <NA>    E8:2… 2023-07-28 09:13:06 2023-07-28 09:20:01   -71
     6 BC:F1:71:D4:DB:04 <NA>    <NA>  2023-07-28 09:13:07 2023-07-28 10:57:52   -45
     7 4C:44:5B:14:76:E3 <NA>    E8:2… 2023-07-28 09:13:09 2023-07-28 09:47:44    -1
     8 A0:E7:0B:AE:D5:44 <NA>    0A:C… 2023-07-28 09:13:09 2023-07-28 11:34:42   -37
     9 00:95:69:E7:7F:35 LsdSci… <NA>  2023-07-28 09:13:11 2023-07-28 11:56:07   -69
    10 00:95:69:E7:7C:ED LsdSci… <NA>  2023-07-28 09:13:11 2023-07-28 11:56:13   -55
    # ℹ 207 more rows
    # ℹ 1 more variable: packets <dbl>
…
device_network_clusters
```

    # A tibble: 99 × 6
       station_mac       essid_normalized first_seen          last_seen          
       <chr>             <chr>            <dttm>              <dttm>             
     1 8C:55:4A:DE:F2:38 Galaxy A30s5208  2023-07-28 09:13:17 2023-07-28 11:56:16
     2 CA:54:C4:8B:B5:3A GIVC             2023-07-28 09:13:06 2023-07-28 11:55:04
     3 F6:4D:98:98:18:C3 GIVC             2023-07-28 09:14:37 2023-07-28 11:55:29
     4 C0:E4:34:D8:E7:E5 C322U13 3965     2023-07-28 09:13:03 2023-07-28 11:53:16
     5 5C:3A:45:9E:1A:7B C322U21 0566     2023-07-28 09:13:03 2023-07-28 11:51:54
     6 28:7F:CF:23:25:53 KC               2023-07-28 09:13:14 2023-07-28 11:51:50
     7 34:E1:2D:3C:C8:2D Cnet             2023-07-28 09:13:29 2023-07-28 11:51:50
     8 88:D8:2E:4F:9B:1A POCO X5 Pro 5G   2023-07-28 09:13:19 2023-07-28 11:51:24
     9 FE:B7:DD:ED:94:91 MIREA_HOTSPOT    2023-07-28 09:13:55 2023-07-28 11:51:47
    10 68:54:5A:40:35:9E Galaxy A71       2023-07-28 09:13:06 2023-07-28 11:50:50
    # ℹ 89 more rows
    # ℹ 2 more variables: duration_seconds <dbl>, record_count <int>
…
most_stable_cluster <- slice_head(signal_stability_metrics, n = 1)

cat("Метрики стабильности сигнала:\n")
```

    Метрики стабильности сигнала:

``` r
print(signal_stability_metrics)
```

    # A tibble: 99 × 6
       station_mac essid_normalized observation_count time_span_minutes rssi_std_dev
       <chr>       <chr>                        <int>             <dbl>        <dbl>
     1 00:E9:3A:6… POCO C40                         1            99.9             NA
     2 00:F4:8D:F… Redmi 12                         1            58.4             NA
     3 02:69:A5:2… Galaxy A71                       1            32.3             NA
     4 02:B3:4E:2… Димасик                          1             0               NA
     5 04:8C:9A:0… MIREA_HOTSPOT                    1            88.1             NA
     6 06:15:2E:1… MIREA_HOTSPOT                    1             2.9             NA
     7 06:7A:BA:E… Vladimir                         1            18.1             NA
     8 06:F2:A9:C… MIREA_HOTSPOT                    1           139.              NA
     9 0A:AB:49:3… MIREA_HOTSPOT                    1            67.1             NA
    10 0A:C2:C3:0… MIREA_HOTSPOT                    1             0.133           NA
    # ℹ 89 more rows
    # ℹ 1 more variable: rssi_mean <dbl>
…
